<svg width="35px" height="24px" viewBox="0 0 35 24" version="1.1" xmlns="http://www.w3.org/2000/svg" xmlns:xlink="http://www.w3.org/1999/xlink">
    <defs></defs>
    <g id="Page-1" stroke="none" stroke-width="1" fill="none" fill-rule="evenodd">
        <g id="news_create" transform="translate(-1182.000000, -1136.000000)" fill-rule="nonzero" fill="#bbbbbb">
            <g id="Group-12" transform="translate(1167.000000, 1118.000000)">
                <g id="Group" transform="translate(15.000000, 18.000000)">
                    <path d="M26.0465116,0.146623729 C23.5789058,0.146623729 21.5697674,2.15477695 21.5697674,4.6212 C21.5697674,7.08761898 23.5789058,9.09579254 26.0465116,9.09579254 C28.5141215,9.09579254 30.5232558,7.08761898 30.5232558,4.6212 C30.5232558,2.15477695 28.5141215,0.146623729 26.0465116,0.146623729 Z M26.0465116,0.960183051 C28.0742322,0.960183051 29.7093023,2.59445695 29.7093023,4.6212 C29.7093023,6.64793898 28.0742322,8.28223322 26.0465116,8.28223322 C24.0187907,8.28223322 22.3837209,6.64793898 22.3837209,4.6212 C22.3837209,2.59445695 24.0187907,0.960183051 26.0465116,0.960183051 Z M15.846657,3.40086102 C13.8285733,3.40086102 12.1838663,5.04477153 12.1838663,7.06187797 C12.1838663,9.07899254 13.8285733,10.7229112 15.846657,10.7229112 C17.8647403,10.7229112 19.5094477,9.07899254 19.5094477,7.06187797 C19.5094477,5.04477153 17.8647403,3.40086102 15.846657,3.40086102 Z M15.846657,4.21442034 C17.4248351,4.21442034 18.6954942,5.48445153 18.6954942,7.06187797 C18.6954942,8.63930441 17.4248351,9.90935186 15.846657,9.90935186 C14.2684744,9.90935186 12.9978198,8.63930441 12.9978198,7.06187797 C12.9978198,5.48445153 14.2684744,4.21442034 15.846657,4.21442034 Z M6.51162791,7.06187797 C4.94307401,7.06187797 3.6627907,8.34154169 3.6627907,9.90935186 C3.6627907,11.4771254 4.94307401,12.7568136 6.51162791,12.7568136 C8.0801814,12.7568136 9.36046512,11.4771254 9.36046512,9.90935186 C9.36046512,8.34154169 8.0801814,7.06187797 6.51162791,7.06187797 Z M6.51162791,7.87545356 C7.64028797,7.87545356 8.54651163,8.78122983 8.54651163,9.90935186 C8.54651163,11.0374373 7.64028797,11.9432542 6.51162791,11.9432542 C5.38296744,11.9432542 4.47674419,11.0374373 4.47674419,9.90935186 C4.47674419,8.78122983 5.38296744,7.87545356 6.51162791,7.87545356 Z M26.0465116,11.5364746 C23.4017932,11.5364746 21.0368432,12.1532339 19.3822674,13.2271322 C18.3117762,12.9249763 17.1159967,12.7568136 15.846657,12.7568136 C12.9499304,12.7568136 10.4284698,13.6157288 8.9662064,15.0195254 C8.20635599,14.8662102 7.38218779,14.7907119 6.51162791,14.7907119 C4.77050366,14.7907119 3.19389244,15.1018576 2.00944767,15.7059661 C0.825002704,16.3100746 -2.0338983e-07,17.2529898 -2.0338983e-07,18.4389966 L-2.0338983e-07,23.3343458 C2.01454474e-05,23.5473356 0.193891657,23.7410847 0.406976541,23.7411254 C11.804474,23.7414102 23.1963066,23.7411254 34.5930233,23.7411254 C34.8061081,23.7410847 34.9999797,23.5473356 35,23.3343458 L35,16.8246102 C35,15.2381695 33.9153138,13.8874169 32.291061,12.9728949 C30.6668087,12.0583729 28.473432,11.5364746 26.0465116,11.5364746 L26.0465116,11.5364746 Z M26.0465116,12.3500339 C28.3543583,12.3500339 30.4314907,12.8597288 31.8968023,13.6847593 C33.3621144,14.5097898 34.1860465,15.6065898 34.1860465,16.8246102 L34.1860465,22.9275661 L23.9861919,22.9275661 L23.9861919,17.6381695 C23.9861919,16.1995119 22.9950403,14.9551322 21.5188953,14.1042712 C21.1762165,13.906739 20.8068851,13.7279186 20.4124273,13.5703729 C21.863006,12.8172203 23.8494025,12.3500339 26.0465116,12.3500339 L26.0465116,12.3500339 Z M15.846657,13.5703729 C17.9261409,13.5703729 19.7927442,14.0430102 21.1119186,14.8034034 C22.4310926,15.5638373 23.1722384,16.5728542 23.1722384,17.6381695 L23.1722384,22.9275661 L13.0232558,22.9275661 L13.0232558,18.4389966 C13.0232558,17.2529898 12.1982529,16.3100746 11.0138081,15.7059661 C10.6751095,15.5332068 10.3048502,15.3854644 9.90734012,15.2610305 C11.2166453,14.2544949 13.3775128,13.5703729 15.846657,13.5703729 L15.846657,13.5703729 Z M6.51162791,15.6042712 C8.15248081,15.6042712 9.62259884,15.9090712 10.6449855,16.430522 C11.6673717,16.9519729 12.2093023,17.6213288 12.2093023,18.4389966 L12.2093023,22.9275661 L0.813953285,22.9275661 L0.813953285,18.4389966 C0.813953285,17.6213288 1.35588372,16.9519729 2.37827035,16.430522 C3.40065698,15.9090712 4.87077459,15.6042712 6.51162791,15.6042712 L6.51162791,15.6042712 Z" id="Shape"></path>
                </g>
            </g>
        </g>
    </g>
</svg>