<?xml version="1.0" encoding="UTF-8"?>
<svg width="40px" height="40px" viewBox="0 0 40 40" version="1.1" xmlns="http://www.w3.org/2000/svg" xmlns:xlink="http://www.w3.org/1999/xlink">
    <!-- Generator: Sketch 46.2 (44496) - http://www.bohemiancoding.com/sketch -->
    <title>i-add-file</title>
    <desc>Created with Sketch.</desc>
    <defs></defs>
    <g id="Page-1" stroke="none" stroke-width="1" fill="none" fill-rule="evenodd" stroke-linecap="round" stroke-linejoin="round">
        <g id="icons" transform="translate(-264.000000, -417.000000)" stroke="#666666" stroke-width="2">
            <path d="M289.25,434.840653 L289.25,441.967517 C289.230157,444.764692 286.69607,447.017764 283.589959,446.999894 C280.483848,446.982025 277.981934,444.699981 278.001777,441.902806 C277.999408,441.881288 277.999408,441.859612 278.001777,441.838095 L278.001777,430.241841 C278.085751,428.421701 279.755433,426.988445 281.778302,427.00007 C283.801172,427.011695 285.450405,428.464025 285.508577,430.284982 C285.508577,430.384206 285.508577,430.479115 285.508577,430.574025 L285.508577,442.040857 C285.508577,442.965306 284.676392,443.714721 283.649841,443.714721 C282.62329,443.714721 281.791106,442.965306 281.791106,442.040857 L281.791106,434.840653" id="Shape-Copy"></path>
        </g>
    </g>
</svg>