<svg xmlns="http://www.w3.org/2000/svg" width="12.40816326530613" height="12.571428571428584">
    <rect id="backgroundrect" width="100%" height="100%" x="0" y="0" fill="none" stroke="none" class=""/>
    <g class="currentLayer">
        <g fill="none" fill-rule="evenodd" stroke="#9bb5c0" stroke-linecap="square" id="svg_1" class="">
            <path d="M6.122449055314064,0.7477142612338064 v11.076 M11.660449055314064,6.285714261233807 H0.5844490553140638 " id="svg_2"/>
        </g>
    </g>
</svg>