<svg xmlns="http://www.w3.org/2000/svg" width="24" height="24" viewBox="0 0 24 24">
    <g fill="none" fill-rule="evenodd" stroke="#666" stroke-linecap="round" stroke-linejoin="round">
        <path d="M20.832 17.997c-.733-1.031-2.3-3.203-2.3-7.557 0-6.84-6.069-6.84-6.069-6.84s-6.067 0-6.067 6.84c0 4.354-1.567 6.526-2.301 7.557a.51.51 0 0 0 .42.803h15.896a.51.51 0 0 0 .421-.803zM9.263 18.8a3.2 3.2 0 1 0 6.4 0"/>
        <path d="M10.087 4.136A2.375 2.375 0 0 1 12.463 2c1.24 0 2.256.928 2.376 2.136"/>
    </g>
</svg>
