<svg xmlns="http://www.w3.org/2000/svg" xmlns:xlink="http://www.w3.org/1999/xlink" width="11.102040816326536" height="19.591836734693864" version="1.1"><rect id="backgroundrect" width="100%" height="100%" x="0" y="0" fill="none" stroke="none" class=""/>
    <defs/>
    <g class="currentLayer">
        <g id="Page-1" stroke="none" stroke-width="1" fill="none" fill-rule="evenodd" stroke-linecap="round" stroke-linejoin="round" class="">
            <g id="24x24" stroke="#666666">
                <path d="M10.293793064660644,7.852506064660645 L10.293793064660644,14.266683964660643 C10.277040364660646,16.78414116466064 8.137623864660645,18.811906064660647 5.515272564660645,18.795823464660643 C2.892921254660644,18.77974086466064 0.7806662046606441,16.725901064660647 0.7974188446606449,14.208443864660651 C0.7954183346606447,14.18907796466064 0.7954183346606447,14.169569564660648 0.7974188446606449,14.150203764660645 L0.7974188446606449,14.150203764660645 L0.7974188446606449,3.7135752646606477 C0.8683140446606448,2.075449264660648 2.277952494660644,0.7855189646606462 3.9857710646606446,0.7959816646606441 C5.693589664660644,0.8064443646606421 7.085964364660645,2.113540764660649 7.135075764660645,3.752401964660642 C7.135075764660645,3.8417034646606467 7.135075764660645,3.9271223646606472 7.135075764660645,4.012541164660647 L7.135075764660645,14.332689464660646 C7.135075664660645,15.164694064660651 6.432499664660645,15.839166964660649 5.565828164660644,15.839166964660649 C4.6991567646606445,15.839166964660649 3.9965806646606445,15.164694064660651 3.9965806646606445,14.332689464660646 L3.9965806646606445,7.852506064660645 " id="Shape-Copy"/>
            </g>
        </g>
    </g>
</svg>