<svg xmlns="http://www.w3.org/2000/svg" width="24" height="24" viewBox="0 0 24 24">
    <g fill="none" fill-rule="evenodd" stroke="#666" transform="translate(2 2)">
        <rect width="19" height="19" x=".5" y=".5" rx="9.5"/>
        <path stroke-linecap="round" d="M9.5 3.125V10.5M14.375 14.125L9.5 10.5"/>
    </g>
</svg>
