<?xml version="1.0" encoding="UTF-8"?>
<svg width="24px" height="24px" viewBox="0 0 24 24" version="1.1" xmlns="http://www.w3.org/2000/svg" xmlns:xlink="http://www.w3.org/1999/xlink">
    <!-- Generator: Sketch 46.2 (44496) - http://www.bohemiancoding.com/sketch -->
    <title>i-del_sm</title>
    <desc>Created with Sketch.</desc>
    <defs></defs>
    <g id="Page-1" stroke="none" stroke-width="1" fill="none" fill-rule="evenodd" stroke-linecap="square">
        <g id="icons" transform="translate(-280.000000, -670.000000)" stroke-width="2" stroke="#FF4A3A">
            <g id="i-del_sm" transform="translate(289.000000, 678.000000)">
                <polyline id="Stroke-21-Copy-10" transform="translate(3.352194, 2.041667) rotate(-270.000000) translate(-3.352194, -2.041667) " points="1.77980573 -1.16666667 4.95438718 2.02660684 1.75 5.25"></polyline>
                <polyline id="Stroke-21-Copy-10" transform="translate(3.352194, 5.541667) rotate(-90.000000) translate(-3.352194, -5.541667) " points="1.77980573 2.33333333 4.95438718 5.52660684 1.75 8.75"></polyline>
            </g>
        </g>
    </g>
</svg>