<?xml version="1.0" encoding="UTF-8"?>
<svg width="24px" height="24px" viewBox="0 0 24 24" version="1.1" xmlns="http://www.w3.org/2000/svg" xmlns:xlink="http://www.w3.org/1999/xlink">
    <!-- Generator: Sketch 44.1 (41455) - http://www.bohemiancoding.com/sketch -->
    <title>Shape Copy 2</title>
    <desc>Created with Sketch.</desc>
    <defs></defs>
    <g id="Page-1" stroke="none" stroke-width="1" fill="none" fill-rule="evenodd">
        <g id="24x24" transform="translate(0.000000, -72.000000)" fill="#666666">
            <path d="M12.1272086,75 L12.1272086,75 C15.221316,75 17.7295856,77.5082696 17.7295856,80.602377 C17.7295856,81.4820319 17.5224464,82.3493257 17.1249381,83.1340421 L12.1272086,93 L7.12947903,83.1340421 L7.12947903,83.1340421 C5.73127904,80.3738722 6.83537374,77.0028475 9.59554355,75.6046475 C10.3802599,75.2071392 11.2475537,75 12.1272086,75 L12.1272086,75 Z M12.003622,78.5998627 L12.003622,78.5998627 C11.0095474,78.5998627 10.2036908,79.4057193 10.2036908,80.3997939 L10.2036908,80.3997939 L10.2036908,80.3997939 C10.2036908,81.3938684 11.0095474,82.1997251 12.003622,82.1997251 L12.1271051,82.1997251 L12.2505883,82.1997251 C13.2446628,82.1997251 14.0505195,81.3938684 14.0505195,80.3997939 L14.0505195,80.3997939 L14.0505195,80.3997939 C14.0505195,79.4057193 13.2446628,78.5998627 12.2505883,78.5998627 L12.2505883,78.5998627 L12.003622,78.5998627 Z" id="Combined-Shape"></path>
        </g>
    </g>
</svg>