<svg width="40px" height="40px" viewBox="0 0 40 40" version="1.1" xmlns="http://www.w3.org/2000/svg" xmlns:xlink="http://www.w3.org/1999/xlink">
    <defs></defs>
    <g id="Page-1" stroke="none" stroke-width="1" fill="none" fill-rule="evenodd" stroke-linecap="round" stroke-linejoin="round">
        <g id="icons" transform="translate(-89.000000, -239.000000)" stroke="#0199ae" stroke-width="2">
            <g id="Page-1" transform="translate(93.000000, 248.000000)">
                <polygon id="Stroke-1" points="0 21.3333 32 21.3333 32 0.0003 0 0.0003"></polygon>
                <path d="M32,2.736 L17.184,12.613 C16.467,13.091 15.533,13.091 14.816,12.613 L0,2.736" id="Stroke-3"></path>
            </g>
        </g>
    </g>
</svg>