<svg xmlns="http://www.w3.org/2000/svg" width="96" height="96" viewBox="0 0 96 96">
    <path fill="#FD7F74" fill-rule="evenodd" d="M47.997 95.994C21.531 95.994 0 74.462 0 47.997S21.531 0 47.997 0c26.465 0 47.996 21.532 47.996 47.997S74.462 95.994 47.997 95.994zm0-93.98c-25.356 0-45.983 20.627-45.983 45.983 0 25.355 20.627 45.982 45.983 45.982 25.355 0 45.982-20.627 45.982-45.982 0-25.356-20.627-45.983-45.982-45.983zM23.591 27.901l18.859-3.08-.483-2.985c-.11-.667.05-1.35.445-1.898.39-.549.985-.919 1.65-1.026l5.421-.885a2.517 2.517 0 0 1 1.888.448c.55.398.912.987 1.021 1.658l.482 2.986 18.859-3.08.271 1.677-48.142 7.861-.271-1.676zm20.526-3.352l7.089-1.158-.482-2.986a.847.847 0 0 0-.97-.701l-5.421.885a.85.85 0 0 0-.699.974l.483 2.986zm-17.565 8.154h41.637l-.91 6.963h4.499v1.698h-4.721l-4.308 32.992c-.489 2.757-2.795 5.646-6.117 5.646H38.108c-2.327 0-4.137-1.426-5.19-3.209h-.088v-.145c-.4-.7-.682-1.46-.832-2.253l-4.315-33.031h-4.679v-1.698h4.457l-.909-6.963zm11.556 45.601h18.524c1.241 0 2.313-.623 3.107-1.511H34.997c.793.885 1.868 1.511 3.111 1.511zm-4.44-4.169c.057.321.16.642.284.96h26.83c.129-.33.237-.664.297-.999l5.184-39.695H28.478l5.19 39.734zm18.65-5.776l1.762-27.723 1.687.108-1.762 27.723-1.687-.108zM46.524 40.69h1.69v27.723h-1.69V40.69zm-7.551.054l1.687-.108 1.762 27.723-1.686.108-1.763-27.723z"/>
</svg>
