<?xml version="1.0" encoding="UTF-8"?>
<svg width="24px" height="24px" viewBox="0 0 24 24" version="1.1" xmlns="http://www.w3.org/2000/svg" xmlns:xlink="http://www.w3.org/1999/xlink">
    <!-- Generator: Sketch 46.2 (44496) - http://www.bohemiancoding.com/sketch -->
    <title>i-line2</title>
    <desc>Created with Sketch.</desc>
    <defs></defs>
    <g id="Page-1" stroke="none" stroke-width="1" fill="none" fill-rule="evenodd" stroke-linecap="square">
        <g id="icons" transform="translate(-554.000000, -511.000000)" stroke-width="2" stroke="#666666">
            <polyline id="Line" transform="translate(566.500000, 523.000000) rotate(8.000000) translate(-566.500000, -523.000000) " points="561 525.734583 566.004236 529 572 517"></polyline>
        </g>
    </g>
</svg>