<?xml version="1.0" encoding="UTF-8"?>
<svg width="24px" height="24px" viewBox="0 0 24 24" version="1.1" xmlns="http://www.w3.org/2000/svg" xmlns:xlink="http://www.w3.org/1999/xlink">
    <!-- Generator: Sketch 46.1 (44463) - http://www.bohemiancoding.com/sketch -->
    <title>i-user</title>
    <desc>Created with Sketch.</desc>
    <defs></defs>
    <g id="Page-1" stroke="none" stroke-width="1" fill="none" fill-rule="evenodd">
        <g id="icons" transform="translate(-258.000000, -546.000000)" stroke="#666666">
            <g id="i-user_thin" transform="translate(261.000000, 548.000000)">
                <path d="M18.4615385,19.2307692 C18.4615385,13.7079217 14.3287823,9.23076923 9.23076923,9.23076923 C4.13275616,9.23076923 0,13.7079217 0,19.2307692" id="Oval-3"></path>
                <rect id="Rectangle-5" x="5.11538462" y="0.5" width="8.23076923" height="8.23076923" rx="4.11538462"></rect>
            </g>
        </g>
    </g>
</svg>