<?xml version="1.0" encoding="UTF-8"?>
<svg width="16px" height="16px" viewBox="0 0 16 16" version="1.1" xmlns="http://www.w3.org/2000/svg" xmlns:xlink="http://www.w3.org/1999/xlink">
    <!-- Generator: Sketch 46.2 (44496) - http://www.bohemiancoding.com/sketch -->
    <title>Group 16</title>
    <desc>Created with Sketch.</desc>
    <defs></defs>
    <g id="Page-1" stroke="none" stroke-width="1" fill="none" fill-rule="evenodd">
        <g id="Group-16">
            <circle id="Oval" fill="#9BB4BF" cx="8" cy="8" r="8"></circle>
            <text id="?" font-family="Roboto-Medium, Roboto" font-size="13" font-weight="400" line-spacing="15" fill="#FFFFFF">
                <tspan x="5" y="13">?</tspan>
            </text>
        </g>
    </g>
</svg>