<svg version="1.1" id="Слой_1" xmlns="http://www.w3.org/2000/svg" xmlns:xlink="http://www.w3.org/1999/xlink" x="0px" y="0px"
	 width="48.333px" height="42.666px" viewBox="20.333 18.167 48.333 42.666" enable-background="new 20.333 18.167 48.333 42.666"
	 xml:space="preserve">
<g>
	<g>
		<path d="M20.333,60.833h8.545v-25.2h-8.545V60.833z M67.334,37.733c0-2.311-1.924-4.2-4.273-4.2H49.58l2.031-9.597
			l0.063-0.673c0-0.86-0.363-1.659-0.939-2.227l-2.264-2.204l-14.059,13.84c-0.79,0.757-1.26,1.807-1.26,2.961v21
			c0,2.311,1.922,4.2,4.272,4.2h19.229c1.772,0,3.289-1.05,3.93-2.563l6.451-14.803c0.193-0.482,0.301-0.986,0.301-1.533v-4.012
			l-0.021-0.021L67.334,37.733z"/>
	</g>
	<g>
		<path d="M59.666,21.167h-2v4h-4v2h4v4h2v-4h4v-2h-4V21.167z M64.166,19.247v1.819l2.5-0.5v10.601h2v-13
			L64.166,19.247z"/>
	</g>
</g>
</svg>
