<svg xmlns="http://www.w3.org/2000/svg" xmlns:xlink="http://www.w3.org/1999/xlink" width="153" height="40" viewBox="0 0 153 40">
    <defs>
        <path id="a" d="M0 39.383h152.51V0H0z"/>
    </defs>
    <g fill="none" fill-rule="evenodd">
        <path fill="#fff" d="M32.645 10.367c-5.318 0-9.572 4.327-9.572 9.551h-2.7c0-6.775 5.481-12.245 12.272-12.245v2.694z"/>
        <path fill="#fff" d="M32.645 13.143a6.767 6.767 0 0 0-6.79 6.775h2.7c0-2.286 1.881-4.081 4.09-4.081v-2.694z"/>
        <path fill="#fff" d="M2.536 5.143c7.037 1.306 12.355 7.428 12.355 14.775h2.782c0-8.245 6.79-15.02 15.054-15.02V2.204c-7.363 0-13.745 4.49-16.363 10.939-2.7-6.45-9-10.939-16.364-10.939v33.96h17.755v-2.695H2.7V5.143h-.164z"/>
        <mask id="b" fill="#fff">
            <use xlink:href="#a"/>
        </mask>
        <path fill="#fff" d="M5.236 25.306h12.355v-2.694H5.236zM5.236 30.776h12.355v-2.694H5.236zM46.554 33.47c-1.636 1.632-4.254 1.632-5.809 0l-2.372-2.368 5.809-5.796 2.372 2.368c1.637 1.55 1.637 4.163 0 5.796m-13.663-9.551c0-1.062.409-2.123 1.227-2.94a4.157 4.157 0 0 1 5.891 0l2.373 2.368-5.81 5.796-2.372-2.367c-.818-.735-1.31-1.796-1.31-2.857m15.628 1.795l-6.627-6.612a6.927 6.927 0 0 0-9.655 0c-1.309 1.306-1.963 3.02-1.963 4.817 0 1.795.736 3.51 1.963 4.816l6.628 6.612c1.309 1.306 3.109 1.96 4.827 1.96s3.518-.654 4.827-1.96a6.888 6.888 0 0 0 0-9.633" mask="url(#b)"/>
        <path fill="#fff" d="M36.818 25.551c.246.245.573.408.982.408.327 0 .655-.163.982-.408.49-.49.49-1.388 0-1.878l-1.964-1.959c-.49-.49-1.39-.49-1.882 0-.49.49-.49 1.388 0 1.878l1.882 1.959zM68.4 3.918l-.573 1.143-1.063 2.286a.872.872 0 0 1-.246.408c-.082.082-.245.082-.409.082h-.654c-.246 0-.328 0-.41-.082-.081-.082-.163-.245-.245-.408l-.736-1.633L63.327 4h-.081v4.653c0 .082 0 .163-.082.245H61.364c-.082 0-.082-.082-.082-.245V1.061c0-.326.082-.571.164-.653.081-.163.327-.163.654-.163h.736c.246 0 .41.082.491.163.082.082.246.245.328.49l1.39 3.02.737 1.796h.082l.818-1.959L67.99.898c.082-.245.245-.408.327-.49.082-.081.328-.163.573-.163h.573c.245 0 .49.082.572.163.164.082.164.327.164.653v7.674c0 .081 0 .163-.082.245H68.482c-.082 0-.082-.082-.082-.245V3.918zM77.318 4.571c0-.408 0-.734-.082-1.061-.081-.326-.163-.653-.327-.898s-.327-.49-.573-.653c-.245-.163-.572-.245-.9-.245-.327 0-.572.082-.818.245a1.91 1.91 0 0 0-.573.571c-.163.245-.245.572-.327.898-.082.327-.082.653-.082 1.062 0 .408 0 .816.082 1.142.082.327.164.654.327.898.164.245.328.409.573.572.246.163.573.163.9.163.327 0 .655-.081.9-.245a1.91 1.91 0 0 0 .573-.571c.164-.245.245-.572.327-.898.082-.327 0-.572 0-.98m1.964 0c0 .735-.082 1.388-.246 1.878-.163.571-.409 1.061-.736 1.388-.327.408-.736.653-1.227.898-.491.163-1.064.326-1.718.326-1.31 0-2.21-.408-2.864-1.143-.655-.816-.982-1.877-.982-3.347 0-.734.082-1.306.246-1.877.163-.572.409-1.062.736-1.388.327-.408.736-.653 1.227-.898.491-.245.982-.327 1.637-.327.654 0 1.227.082 1.718.327.49.245.9.49 1.227.898.327.408.573.816.736 1.388a6.53 6.53 0 0 1 .246 1.877M84.682 7.347c.409 0 .736-.082 1.063-.163.328-.082.573-.163.9-.327.082-.081.164-.081.246 0 .082 0 .082.082.164.164l.409.898c.081.081.081.163.081.244 0 .082-.081.082-.163.164-.41.245-.9.49-1.391.571-.491.082-.982.163-1.473.163-.654 0-1.309-.081-1.8-.326-.49-.163-.9-.49-1.227-.898-.327-.408-.573-.816-.736-1.388a6.53 6.53 0 0 1-.246-1.877c0-.653.082-1.307.327-1.878.164-.571.491-1.061.819-1.47.327-.408.736-.734 1.227-.897C83.372.082 83.945 0 84.518 0c.41 0 .818 0 1.227.082.41.081.819.245 1.228.408.082.082.163.082.163.163 0 .082 0 .163-.081.327l-.41.898c-.081.081-.081.163-.163.245h-.246c-.327-.082-.572-.164-.818-.245-.245-.082-.573-.082-.9-.082-.327 0-.654.082-.9.245-.245.163-.49.327-.654.571a3.014 3.014 0 0 0-.41.898 4.808 4.808 0 0 0-.163 1.143c0 .408 0 .817.082 1.143.082.327.163.653.327.898s.41.408.655.571c.49 0 .818.082 1.227.082M93.846 4.327c.245.081.409.163.572.244.164.082.246.245.328.327.081.163.163.245.245.408.082.163.082.327.164.49l.736 2.857v.163c0 .082-.082.082-.164.082h-1.636c-.082 0-.082-.082-.082-.163l-.736-2.694c-.082-.245-.164-.408-.246-.49a.638.638 0 0 0-.327-.327c-.163-.081-.245-.163-.409-.163-.164 0-.327-.081-.573-.081h-.981v3.673c0 .082 0 .163-.082.163h-1.8s-.082-.081-.082-.163V.327c0-.082 0-.164.082-.164h1.8s.082.082 0 .164V3.51h1.391c.163 0 .245-.081.409-.163.163-.082.245-.163.409-.327.082-.163.163-.326.245-.571l.573-2.122c0-.082.082-.164.082-.164h1.554c.082 0 .164 0 .164.082v.163l-.573 2.286c-.163.735-.49 1.224-1.063 1.633M102.437 4.571c0-.408 0-.734-.082-1.061-.082-.326-.164-.653-.328-.898-.163-.245-.327-.49-.572-.653-.246-.163-.573-.245-.9-.245-.328 0-.573.082-.818.245a1.91 1.91 0 0 0-.573.571c-.164.245-.246.572-.327.898-.082.327-.082.653-.082 1.062 0 .408 0 .816.082 1.142.081.327.163.654.327.898.163.245.327.409.573.572.245.163.572.163.9.163.327 0 .654-.081.9-.245a1.91 1.91 0 0 0 .572-.571c.164-.245.246-.572.328-.898.081-.327 0-.572 0-.98m2.045 0c0 .735-.082 1.388-.245 1.878-.164.571-.41 1.061-.737 1.388-.327.408-.736.653-1.227.898-.491.163-1.064.326-1.718.326-1.31 0-2.21-.408-2.864-1.143-.654-.816-.982-1.877-.982-3.347 0-.734.082-1.306.246-1.877.163-.572.409-1.062.736-1.388.327-.408.736-.653 1.227-.898.491-.245.982-.327 1.637-.327.654 0 1.227.082 1.718.327.49.245.9.49 1.227.898.327.408.573.816.737 1.388a6.53 6.53 0 0 1 .245 1.877M110.946 6.204c0-.327-.082-.572-.328-.816-.163-.245-.49-.327-.9-.327H108v2.204h1.8c.246 0 .41 0 .573-.081.163-.082.245-.164.409-.245.082-.082.164-.245.164-.327v-.408zM108 3.51h2.046c.081 0 .245-.082.327-.163l.245-.245c.082-.082.082-.245.082-.408a.74.74 0 0 0-.245-.572c-.164-.163-.41-.245-.655-.245H108V3.51zm3.6.653c.246.082.41.245.573.327.163.163.327.326.409.49.082.163.164.408.245.57.082.246.082.409.082.654 0 .408-.082.735-.245 1.061-.164.327-.328.572-.655.816-.245.245-.573.409-.982.572-.327.163-.736.163-1.145.163h-3.11c-.326 0-.49-.081-.572-.163-.082-.082-.164-.327-.164-.572V.898c0-.245.082-.49.164-.572.082-.163.327-.163.573-.163h3.027c.41 0 .736.082 1.064.163.327.082.572.245.818.409.245.163.409.408.573.653.163.244.245.571.245.98 0 .326-.082.652-.245.979-.164.326-.41.571-.655.653v.163zM118.31 7.347c.408 0 .736-.082 1.063-.163.327-.082.573-.163.9-.327.082-.081.163-.081.245 0 .082 0 .082.082.164.164l.409.898c.082.081.082.163.082.244 0 .082-.082.082-.164.164-.409.245-.9.49-1.39.571-.492.082-.983.163-1.473.163-.655 0-1.31-.081-1.8-.326-.491-.163-.9-.49-1.228-.898-.327-.408-.572-.816-.736-1.388a6.53 6.53 0 0 1-.246-1.877c0-.653.082-1.307.328-1.878.163-.571.49-1.061.818-1.47.327-.408.736-.734 1.227-.897C117 .082 117.573 0 118.146 0c.409 0 .818 0 1.227.082.409.081.818.245 1.227.408.082.082.164.082.164.163 0 .082 0 .163-.082.327l-.41.898c-.081.081-.081.163-.163.245h-.245c-.328-.082-.573-.164-.818-.245-.246-.082-.573-.082-.9-.082-.328 0-.655.082-.9.245-.246.163-.491.327-.655.571a3.014 3.014 0 0 0-.41.898 4.808 4.808 0 0 0-.163 1.143c0 .408 0 .817.082 1.143.082.327.164.653.327.898.164.245.41.408.655.571.49 0 .818.082 1.227.082M127.636 4.327c.246.081.41.163.573.244.164.082.246.245.327.327.082.163.164.245.246.408.082.163.082.327.163.49l.737 2.857v.163c0 .082-.082.082-.164.082H127.882c-.082 0-.082-.082-.082-.163l-.736-2.694c-.082-.245-.164-.408-.246-.49a.638.638 0 0 0-.327-.327c-.164-.081-.246-.163-.41-.163-.163 0-.326-.081-.572-.081h-.982v3.673c0 .082 0 .163-.082.163h-1.8s-.081-.081-.081-.163V.327c0-.082 0-.164.081-.164h1.8s.082.082 0 .164V3.51h1.392c.163 0 .245-.081.408-.163.164-.082.246-.163.41-.327.081-.163.163-.326.245-.571l.573-2.122c0-.082.082-.164.082-.164h1.554c.082 0 .164 0 .164.082v.163l-.573 2.204c-.164.817-.573 1.306-1.064 1.715M133.527 5.551h1.964L135.001 4l-.492-1.796h-.082L133.937 4l-.41 1.551zm2.455 1.551h-2.864l-.49 1.551c0 .082-.082.163-.082.163-.082 0-.164.082-.246.082h-1.473c-.081 0-.163 0-.163-.082v-.163l2.618-7.837c.082-.163.082-.245.164-.326.081-.082.081-.163.163-.245.082-.082.164-.082.246-.082h1.391c.081 0 .163.082.245.082.082.082.164.082.164.245.082.081.082.245.163.326l2.619 7.837v.163c0 .082-.082.082-.164.082h-1.718c-.082 0-.082-.082-.164-.163l-.409-1.633zM141.627 2.857c0 .327.082.572.246.735.163.163.49.245.818.245h1.636v-1.96h-1.718c-.245 0-.409 0-.573.082a1.13 1.13 0 0 0-.327.245c-.082.082-.163.245-.163.327.081.081.081.245.081.326zm2.782 2.53h-1.145c-.41 0-.655.083-.9.246-.246.163-.328.408-.491.816 0 .082-.082.245-.164.49-.082.163-.082.408-.163.653-.082.245-.082.408-.164.653-.082.163-.082.327-.082.49 0 .163-.082.163-.245.245-.164.081-.164 0-.328 0h-1.39c-.164 0-.164-.082-.164-.164v-.163l.654-2.449c.082-.326.164-.571.328-.816.163-.245.409-.408.818-.49-.491-.163-.818-.408-1.064-.816-.245-.408-.327-.817-.327-1.306 0-.408.082-.735.164-1.062.163-.326.327-.571.572-.816.246-.245.573-.408.9-.49.328-.163.737-.163 1.228-.163h3.027c.327 0 .49.082.573.163.081.164.163.327.163.572v7.755c0 .081 0 .163-.082.163h-1.8s-.081-.082-.081-.163V5.388h.163zM63.41 22.367c.326 0 .654-.081.9-.163.245-.081.49-.245.654-.408.163-.163.327-.408.409-.653.082-.245.163-.571.163-.898h-2.945c-.082 0-.164 0-.164-.082 0 0-.082-.081-.082-.163V18.94c0-.082 0-.163.082-.163 0 0 .082-.082.164-.082h2.945c-.081-.571-.245-1.061-.572-1.388-.328-.326-.819-.49-1.391-.49-.328 0-.573 0-.9.082-.246.082-.573.163-.818.245-.082.082-.164.082-.246 0-.082-.082-.082-.082-.164-.245L61.118 16c-.082-.163-.082-.245-.082-.326 0-.082.082-.082.164-.164.41-.163.818-.326 1.227-.408.41-.082.9-.082 1.31-.082 1.227 0 2.208.327 2.863 1.062.655.734.982 1.796.982 3.183 0 .735-.082 1.307-.246 1.96a4.14 4.14 0 0 1-.736 1.469 3.621 3.621 0 0 1-1.227.98c-.491.244-1.064.326-1.718.326-.491 0-.982-.082-1.473-.163-.491-.082-.982-.245-1.391-.572l-.164-.163c0-.082 0-.163.082-.245l.41-.898c.081-.081.081-.163.163-.163h.245c.246.082.573.163.9.327.246.244.573.244.982.244M70.036 16.082c0-.327.082-.49.164-.654.082-.163.327-.163.573-.163h4.5c.327 0 .49.082.654.245.082.163.164.327.164.653v7.674c0 .081 0 .163-.082.163 0 0-.082.082-.245.082h-1.391c-.082 0-.164 0-.164-.082 0 0-.082-.082-.082-.163V16.98h-2.454l-.082.897c-.082.898-.164 1.715-.164 2.45 0 .734-.163 1.306-.327 1.877-.164.49-.409.98-.818 1.306a3.166 3.166 0 0 1-1.473.816c-.082 0-.163.082-.245 0-.082 0-.082-.081-.164-.163l-.409-.898c0-.081-.082-.163 0-.245 0-.081.082-.081.164-.163.327-.163.572-.326.818-.571.163-.245.327-.49.49-.898.083-.327.164-.817.246-1.388.082-.572.082-1.225.164-2.04l.163-1.878zM84.273 23.918c0 .082-.082.082-.164.082h-3.682c-.49 0-.818-.082-1.145-.163-.327-.164-.491-.327-.737-.49-.163-.245-.327-.49-.327-.735-.082-.245-.082-.571-.082-.816v-4.163c0-.327.082-.572.164-.898.082-.245.245-.49.41-.735.163-.245.408-.408.735-.49.328-.163.655-.163 1.064-.163h3.6c.082 0 .164 0 .164.082 0 .081.082.081.082.244v1.062c0 .081 0 .163-.082.245 0 0-.082.081-.164.081h-3.19c-.328 0-.574.082-.655.245-.082.163-.164.327-.164.572v.98h3.6c.082 0 .164 0 .164.08 0 .082.081.082.081.246v.98c0 .08 0 .163-.081.244 0 .082-.082.082-.164.082h-3.6v1.388c0 .326.082.49.245.571.164.082.328.163.573.163h3.273c.082 0 .164 0 .245.082.082.082.082.082.082.245V24c-.163-.245-.163-.163-.245-.082M91.31 19.347c.245.081.408.163.572.245.164.081.245.245.327.326.082.164.164.245.246.408.081.164.081.327.163.49l.737 2.857v.164c0 .081-.082.081-.164.081H91.555c-.082 0-.082-.081-.082-.163l-.737-2.694c-.081-.245-.163-.408-.245-.49a.638.638 0 0 0-.327-.326c-.164-.082-.246-.163-.41-.163-.163 0-.327-.082-.572-.082H88.2v3.673c0 .082 0 .164-.082.164h-1.8s-.082-.082-.082-.164v-8.326c0-.082 0-.163.082-.163h1.8s.082.081 0 .163v3.184h1.392c.163 0 .245-.082.408-.164.164-.081.246-.163.41-.326.081-.164.163-.327.245-.572l.573-2.122c0-.082.081-.163.081-.163H92.781c.083 0 .165 0 .165.081v.163l-.573 2.205c-.164.816-.491 1.306-1.064 1.714M100.718 16.898h-2.29v6.857c0 .082 0 .163-.082.245 0 0-.082.082-.246.082h-1.309c-.082 0-.164 0-.245-.082-.082 0-.082-.082-.082-.245v-6.857h-2.21c-.163 0-.245-.082-.245-.245V15.51c0-.082 0-.163.082-.245 0 0 .082-.081.164-.081h6.381c.082 0 .164 0 .164.081 0 0 .082.082.082.245v1.143c.082.163 0 .245-.164.245M106.855 18.122c0-.081 0-.245-.082-.408 0-.163-.082-.245-.164-.408-.082-.082-.245-.245-.409-.326-.164-.082-.327-.082-.654-.082h-1.637v2.367h1.637c.409 0 .736-.081.9-.326.327-.245.409-.49.409-.817zm-2.864 5.551c0 .082 0 .164-.082.245 0 0-.082.082-.245.082h-1.31c-.081 0-.163 0-.245-.082-.082 0-.082-.081-.082-.245V16c0-.245.082-.408.164-.572.082-.163.327-.244.573-.244h3.027c.41 0 .818.081 1.227.244.328.164.655.327.9.572.246.245.41.49.573.898.164.326.164.735.164 1.061 0 .245 0 .49-.082.816a3.014 3.014 0 0 1-.41.898c-.245.327-.572.572-.981.817-.41.245-.982.326-1.636.326h-1.637v2.857h.082zM115.773 19.592c0-.408 0-.735-.082-1.061-.082-.327-.164-.653-.327-.898-.164-.245-.328-.49-.573-.653-.246-.164-.573-.245-.9-.245-.327 0-.573.081-.818.245a1.91 1.91 0 0 0-.573.571c-.164.245-.245.572-.327.898-.082.327-.082.653-.082 1.061 0 .409 0 .817.082 1.143.082.327.163.653.327.898s.327.408.573.572c.245.163.572.163.9.163.327 0 .654-.082.9-.245a1.91 1.91 0 0 0 .572-.571c.164-.245.246-.572.328-.898-.082-.245 0-.572 0-.98m1.963 0c0 .735-.081 1.388-.245 1.878-.164.571-.41 1.06-.736 1.387-.328.408-.737.653-1.228.898-.49.164-1.063.327-1.718.327-1.309 0-2.209-.408-2.864-1.143-.654-.816-.981-1.878-.981-3.347 0-.735.081-1.306.245-1.878.164-.571.41-1.06.736-1.387.328-.408.737-.653 1.228-.898.49-.245.982-.327 1.636-.327.655 0 1.227.082 1.718.327.491.245.9.49 1.228.898.327.408.572.816.736 1.387a6.53 6.53 0 0 1 .245 1.878M126.573 23.918s-.082.082-.246.082h-1.309c-.081 0-.163 0-.245-.082-.082 0-.082-.081-.082-.245v-3.51h-3.354v3.51c0 .082 0 .164-.082.245 0 0-.082.082-.246.082H119.7c-.082 0-.163 0-.245-.082-.082 0-.082-.081-.082-.245V15.51c0-.081 0-.163.082-.245.082 0 .082-.081.245-.081h1.31c.163 0 .245 0 .245.081 0 0 .082.082.082.245v3.102h3.354V15.51c0-.081 0-.163.082-.245.082 0 .082-.081.245-.081h1.31c.163 0 .245 0 .245.081 0 0 .082.082.082.245v8.163c0 .164 0 .164-.082.245M135.654 23.918s-.081.082-.245.082h-1.31c-.081 0-.163 0-.245-.082-.081 0-.081-.081-.081-.245v-3.51h-3.355v3.51c0 .082 0 .164-.082.245 0 0-.082.082-.245.082h-1.31c-.081 0-.163 0-.245-.082-.082 0-.082-.081-.082-.245V15.51c0-.081 0-.163.082-.245.082 0 .082-.081.246-.081h1.309c.163 0 .245 0 .245.081 0 0 .082.082.082.245v3.102h3.355V15.51c0-.081 0-.163.081-.245.082 0 .082-.081.246-.081h1.309c.164 0 .245 0 .245.081 0 0 .082.082.082.245v8.163c0 .164 0 .164-.082.245M139.745 20.571h1.964l-.491-1.55-.49-1.797-.492 1.796-.49 1.551zm2.455 1.551h-2.864l-.49 1.551c0 .082-.083.164-.083.164-.081 0-.163.081-.245.081h-1.473c-.082 0-.163 0-.163-.081v-.164l2.618-7.836c.082-.164.082-.245.163-.327.082-.082.082-.163.164-.245.082-.081.164-.081.246-.081h1.391c.081 0 .163.081.245.081.082.082.164.082.164.245.081.082.081.245.163.327l2.618 7.836v.164c0 .081-.081.081-.163.081h-1.718c-.081 0-.081-.081-.164-.163l-.41-1.633zM147.846 17.878c0 .326.081.571.245.734.164.164.491.245.818.245h1.637v-1.959h-1.637c-.245 0-.409 0-.572.082-.164.081-.246.163-.328.245-.082.081-.163.244-.163.326v.327zm2.781 2.53h-1.145c-.41 0-.655.082-.9.245-.245.163-.327.408-.49.816 0 .082-.083.245-.165.49-.081.164-.081.408-.163.653-.082.245-.082.408-.164.653-.082.164-.082.327-.082.49 0 .163-.081.163-.245.245-.164.082-.164 0-.327 0h-1.31c-.163 0-.163-.082-.163-.163v-.163l.654-2.45c.082-.326.164-.57.328-.816.163-.245.409-.408.818-.49-.491-.163-.818-.408-1.064-.816-.245-.408-.327-.816-.327-1.306 0-.408.082-.735.164-1.061.163-.327.327-.572.572-.817.246-.244.573-.408.9-.49.328-.163.737-.163 1.228-.163h3.027c.327 0 .49.082.573.164.081.163.163.326.163.571v7.755c0 .082 0 .163-.082.163h-1.8c-.081 0-.081-.081-.081-.163v-3.347h.081zM62.018 38.939c-.245 0-.49-.082-.573-.245-.082-.163-.163-.327-.163-.653v-7.674c0-.163.081-.245.245-.245h1.391c.082 0 .164 0 .245.082 0 0 .082.082.082.163v6.857h2.537v-6.857c0-.163.081-.245.245-.245h1.391c.082 0 .164 0 .245.082 0 0 .082.082.082.163v6.857h2.537v-6.857c0-.081 0-.163.081-.163 0 0 .082-.082.246-.082h1.39c.164 0 .246.082.246.245v7.674c0 .245-.082.49-.163.653-.082.163-.328.245-.573.245h-9.491zM78.955 34.367c.245.082.409.163.572.245.164.082.246.245.328.327.081.163.163.245.245.408.082.163.082.326.164.49L81 38.694v.163c0 .082-.082.082-.164.082H79.2c-.082 0-.082-.082-.082-.164l-.736-2.694c-.082-.244-.164-.408-.246-.49a.638.638 0 0 0-.327-.326c-.164-.081-.245-.163-.409-.163-.164 0-.327-.082-.573-.082h-.982v3.674c0 .081 0 .163-.081.163h-1.8s-.082-.082-.082-.163v-8.245c0-.082 0-.163.082-.163h1.8V33.632h1.391c.163 0 .245-.081.409-.163a.638.638 0 0 0 .327-.326c.082-.164.164-.327.245-.572l.573-2.122c0-.082.082-.163.082-.163H80.345c.082 0 .164 0 .164.081v.163l-.573 2.205c-.081.734-.49 1.224-.981 1.632M87.545 34.612c0-.408 0-.734-.081-1.06-.082-.327-.164-.654-.328-.899-.163-.245-.327-.49-.572-.653-.246-.163-.573-.245-.9-.245-.328 0-.573.082-.819.245a1.91 1.91 0 0 0-.572.572c-.164.244-.246.57-.328.897-.081.327-.081.654-.081 1.062 0 .408 0 .816.081 1.143.082.326.164.653.328.898.163.244.327.408.572.57.246.164.573.164.9.164.328 0 .655-.081.9-.245a1.91 1.91 0 0 0 .573-.571c.164-.245.246-.572.327-.898-.081-.245 0-.572 0-.98m1.964 0c0 .735-.082 1.388-.245 1.878-.164.49-.41 1.061-.737 1.388-.327.408-.736.653-1.227.898-.49.163-1.064.326-1.718.326-1.31 0-2.21-.408-2.864-1.143-.654-.816-.982-1.877-.982-3.347 0-.734.082-1.306.246-1.877.163-.572.409-1.061.736-1.388.327-.408.737-.653 1.227-.898.491-.245.982-.326 1.637-.326.654 0 1.227.081 1.718.326.49.245.9.49 1.227.898.328.408.573.816.737 1.388a6.53 6.53 0 0 1 .245 1.877M91.8 31.102c0-.327.082-.49.164-.653.082-.163.327-.163.573-.163h4.5c.327 0 .49.081.654.244.082.164.164.327.164.654v7.673c0 .082 0 .163-.082.163 0 0-.082.082-.246.082h-1.39c-.082 0-.164 0-.164-.082 0 0-.082-.081-.082-.163V32h-2.454l-.082.898c-.082.898-.164 1.714-.164 2.449-.082.734-.164 1.306-.327 1.877-.164.49-.41.98-.818 1.306a3.166 3.166 0 0 1-1.473.817c-.082 0-.164.081-.246 0l-.163-.163-.41-.898c0-.082-.081-.164 0-.245 0-.082.083-.082.164-.164.328-.163.573-.326.819-.571.163-.245.327-.49.49-.898.082-.327.164-.816.246-1.388.082-.571.082-1.224.164-2.04l.163-1.878zM101.946 35.592h1.963l-.49-1.551-.492-1.796h-.081l-.491 1.796-.41 1.55zm2.372 1.55h-2.863l-.491 1.552c0 .081-.082.163-.082.163s-.164.082-.246.082h-1.472c-.082 0-.164 0-.164-.082v-.163l2.618-7.837c.082-.163.082-.245.164-.327.082-.081.082-.163.164-.244.081-.082.163-.082.245-.082h1.391c.082 0 .164.082.245.082.082.081.164.081.164.244.082.082.082.245.164.327l2.618 7.837v.163c0 .082-.082.082-.164.082h-1.718c-.082 0-.082-.082-.164-.164l-.409-1.632z" mask="url(#b)"/>
    </g>
</svg>
