<svg version="1.1" id="Слой_1" xmlns="http://www.w3.org/2000/svg" xmlns:xlink="http://www.w3.org/1999/xlink" x="0px" y="0px"
	 width="20px" height="20px" viewBox="0 0 20 20" enable-background="new 0 0 20 20" xml:space="preserve">
<g>
	<g>
		<path d="M18,8H2V5h16 M18,12h-7v-2h7 M18,16h-7v-2h7 M9,16H2v-6h7 M18.331,1.67L16.67,0L15,1.67L13.331,0
			l-1.66,1.67L10,0L8.33,1.67L6.67,0L5,1.67L3.33,0L1.67,1.67L0,0v16c0,1.104,0.895,2,2,2h16c1.104,0,2-0.896,2-2V0L18.331,1.67z"/>
	</g>
</g>
</svg>
